^C:\Users\treachery\Documents\testKinectv2_01\DXKinectRenderingPlugin\RenderingPlugin\VisualStudio2008\RenderingPlugin.vcxproj
C:\Users\treachery\Documents\testKinectv2_01\DXKinectRenderingPlugin\RenderingPlugin\VisualStudio2008\x64\Release64\RenderingPlugin.lib
C:\Users\treachery\Documents\testKinectv2_01\DXKinectRenderingPlugin\RenderingPlugin\VisualStudio2008\x64\Release64\RenderingPlugin.exp
^C:\Users\treachery\Documents\testKinectv2_01\DXKinectRenderingPlugin\RenderingPlugin\VisualStudio2008\RenderingPlugin.vcxproj
C:\Users\treachery\Documents\testKinectv2_01\DXKinectRenderingPlugin\RenderingPlugin\VisualStudio2008\x64\Release64\RenderingPlugin.lib
C:\Users\treachery\Documents\testKinectv2_01\DXKinectRenderingPlugin\RenderingPlugin\VisualStudio2008\x64\Release64\RenderingPlugin.exp
^C:\Users\treachery\Documents\testKinectv2_01\DXKinectRenderingPlugin\RenderingPlugin\VisualStudio2008\RenderingPlugin.vcxproj
C:\Users\treachery\Documents\testKinectv2_01\DXKinectRenderingPlugin\RenderingPlugin\VisualStudio2008\x64\Release64\RenderingPlugin.lib
C:\Users\treachery\Documents\testKinectv2_01\DXKinectRenderingPlugin\RenderingPlugin\VisualStudio2008\x64\Release64\RenderingPlugin.exp
^C:\Users\treachery\Documents\testKinectv2_01\DXKinectRenderingPlugin\RenderingPlugin\VisualStudio2008\RenderingPlugin.vcxproj
C:\Users\treachery\Documents\testKinectv2_01\DXKinectRenderingPlugin\RenderingPlugin\VisualStudio2008\x64\Release64\RenderingPlugin.lib
C:\Users\treachery\Documents\testKinectv2_01\DXKinectRenderingPlugin\RenderingPlugin\VisualStudio2008\x64\Release64\RenderingPlugin.exp
^C:\Users\treachery\Documents\testKinectv2_01\DXKinectRenderingPlugin\RenderingPlugin\VisualStudio2008\RenderingPlugin.vcxproj
C:\Users\treachery\Documents\testKinectv2_01\DXKinectRenderingPlugin\RenderingPlugin\VisualStudio2008\x64\Release64\RenderingPlugin.lib
C:\Users\treachery\Documents\testKinectv2_01\DXKinectRenderingPlugin\RenderingPlugin\VisualStudio2008\x64\Release64\RenderingPlugin.exp
^C:\Users\treachery\Documents\testKinectv2_01\DXKinectRenderingPlugin\RenderingPlugin\VisualStudio2008\RenderingPlugin.vcxproj
C:\Users\treachery\Documents\testKinectv2_01\DXKinectRenderingPlugin\RenderingPlugin\VisualStudio2008\x64\Release64\RenderingPlugin.lib
C:\Users\treachery\Documents\testKinectv2_01\DXKinectRenderingPlugin\RenderingPlugin\VisualStudio2008\x64\Release64\RenderingPlugin.exp
^C:\Users\treachery\Documents\testKinectv2_01\DXKinectRenderingPlugin\RenderingPlugin\VisualStudio2008\RenderingPlugin.vcxproj
C:\Users\treachery\Documents\testKinectv2_01\DXKinectRenderingPlugin\RenderingPlugin\VisualStudio2008\x64\Release64\RenderingPlugin.lib
C:\Users\treachery\Documents\testKinectv2_01\DXKinectRenderingPlugin\RenderingPlugin\VisualStudio2008\x64\Release64\RenderingPlugin.exp
