^C:\USERS\TREACHERY\DOCUMENTS\TESTKINECTV2_01\DXKINECTRENDERINGPLUGIN\RENDERINGPLUGIN\RENDERINGPLUGIN.CPP
C:\USERS\TREACHERY\DOCUMENTS\TESTKINECTV2_01\DXKINECTRENDERINGPLUGIN\RENDERINGPLUGIN\VISUALSTUDIO2008\BUILD\RELEASE64\VC120.PDB
C:\USERS\TREACHERY\DOCUMENTS\TESTKINECTV2_01\DXKINECTRENDERINGPLUGIN\RENDERINGPLUGIN\VISUALSTUDIO2008\BUILD\RELEASE64\RENDERINGPLUGIN.OBJ
